<svg width="40" height="40" viewBox="0 0 40 40" fill="none" xmlns="http://www.w3.org/2000/svg">
<path d="M40 10H0V3.33334H40V10ZM40 16.6667H0V23.3333H40V16.6667ZM40 30H0V36.6667H40V30Z" fill="black" fill-opacity="0.5"/>
</svg>
